…
**Veel mõned kasulikud funktsioonid**

Kui on vaja välja jätta dubleerivad vaatlused:


```r
flights %>% 
  distinct(carrier, flight)
```

```
## # A tibble: 5,725 x 2
##    carrier flight
##    <chr>    <int>
##  1 UA        1545
##  2 UA        1714
##  3 AA        1141
##  4 B6         725
##  5 DL         461
##  6 UA        1696
##  7 B6         507
##  8 EV        5708
##  9 B6          79
## 10 AA         301
## # ... with 5,715 more rows
```
…
