Peatükk 32 Pakett dplyr | Kvantitatiivne andmeanalüüs
…
Tänu piping’ule saab küllaltki keerulisi andmeteisendusi teha väga lihtsalt ja elegantselt (puhta ja arusaadava koodiga). Näiteks tunnus, milles on kõikide lennufirmade keskmine hilinemine kõikide kuude lõikes:

dat1 <- dat%>%
  group_by(carrier, month) %>% # saame grupeerida ka mitme tunnuse lõikes
  mutate(keskmine = mean(arr_delay, na.rm=T))

32.8 Veel mõned kasulikud funktsioonid

Kui on vaja välja jätta dubleerivad vaatlused:

flights %>% 
  distinct(carrier, flight)

## # A tibble: 5,725 x 2
##    carrier flight
##    <chr>    <int>
##  1 UA        1545
##  2 UA        1714
##  3 AA        1141
##  4 B6         725
##  5 DL         461
##  6 UA        1696
##  7 B6         507
##  8 EV        5708
##  9 B6          79
## 10 AA         301
## # ... with 5,715 more rows
…
